prop|az_AZ|bg_BG|bs_BA|cs_CZ|da_DK|de_AT|de_CH|de_DE|el_CY|el_GR|en_AE|en_AU|en_CA|en|en_HK|en_IE|en_IL|en_IN|en_MY|en_NZ|en_PK|en_SG|en_US|en_ZA|es_ES|et_EE|fi_FI|fr_CA|fr_FR|hr_HR|hu_HU|it_IT|ja_JP|ko_KR|lt_LT|lv_LV|nb_NO|nl_BE|nl_NL|pl_PL|pt_PT|ro_RO|ru_KZ|ru_RU|sk_SK|sl_SI|sr_RS|sv_SE|uk_UA|vi_VN|zh_CN|zh_TW
product.review.verified|Verified Purchase|Потвърдена поръчка|Odobrena Narudžba|Ověřená objednávka|Bekræftet køb|Verifizierter Kauf|Verifizierter Kauf|Verifizierter Kauf|Η παραγγελία σας έχει επιβεβαιωθεί|Η παραγγελία σας έχει επιβεβαιωθεί |Verified Purchase|Verified Purchase|Verified Purchase|Verified Purchase|Verified Purchase|Verified Purchase|Verified Purchase|Verified Purchase|Verified Purchase|Verified Purchase|Verified Purchase|Verified Purchase|Verified Purchase|Verified Purchase|Compra verificada|Verified Purchase|Varmistettu osto|Achat sécurisé |Achat sécurisé |Odobrena Narudžba|Ellenőrzött vásárlás|Acquisto Confermato|マイプロテイン認証購入者|실제 구매고객|Patvirtintas užsakymas|Verified Purchase|Verifisert Betaling|geverifieerde aankoop|geverifieerde aankoop|Zakup zweryfikowany|Compra verificada|Achiziţie verificată|Подтвержденная покупка|Подтвержденная покупка|Overená Objednávka|Veljaven nakup|Odobrena Porudžbina|Verifierat köp|Підтверджена покупка|Thanh Toán Đã Xác Thực|受认证交易|受認證的交易
reward-points.responsive.basket.use-points.placeholder|Enter reward points|Въведете промо точки|Upiši bodove vjernosti |Vložte počet bodů, které chcete využít|Indtast belønningspoint|Füge deine Bonuspunkte hinzu|Füge deine Bonuspunkte hinzu|Füge deine Bonuspunkte hinzu|Εισάγετε τους πόντους επιβράβευσης|Εισάγετε τους πόντους επιβράβευσης|Enter reward points|Enter reward points|Enter reward points|Enter reward points|Enter reward points|Enter reward points|Enter reward points|Enter reward points|Enter reward points|Enter reward points|Enter reward points|Enter reward points|Enter reward points|Enter reward points|Introduce los puntos de recompensa|Enter reward points|Lisää palkintopisteet|Nombre de points|Nombre de points|Upiši bodove vjernosti |Jutalom pontok beírása|Inserire Punti|こちらにご使用になるポイントを入力して下さい|사용하기 원하는 MP 포인트 금액을 입력해 주세요.|Įveskite lojalumo taškus|Enter reward points|Oppgi bonuspoeng|gebruik jouw reward points|gebruik jouw reward points|Wpisz otrzymane punkty |Insere Pontos de Recompensa|Foloseşte punctele de fidelitate|Введите бонусные баллы|Введите бонусные баллы|Vložte počet bodov, ktoré chcete využiť|Vnesi št. točk za unovčitev|Upiši bodove vernosti |Skriv in bonuspoäng|Введіть бонусні бали|Nhập điểm thưởng|请输入要使用的点数|請輸入要使用的點數
reward-points.responsive.basket.use-points.first.text|You have|Имате|Imaš|Máte|Du har|Du hast|Du hast|Du hast|Έχετε |Έχετε |You have|You have|You have|You have|You have|You have|You have|You have|You have|You have|You have|You have|You have|You have|Tienes|You have|Sinulla on|Vous avez |Vous avez |Imaš|Még|Hai|今回の購入で|사용 가능 MP 포인트:|Jūs turite|You have|Du har|je hebt|je hebt|Masz|Tens |Ai|Вы имеете|Вы имеете|Aktuálne máte|Na računu imate|Imaš|Du har|Ви маете|Bạn có|你目前有|您目前有
reward-points.responsive.basket.use-points.second.text|reward points|промо точки|bodova vjernosti|věrnostních bodů|belønningspoint|Bonuspunkte|Bonuspunkte|Bonuspunkte|πόντους επιβράβευσης|πόντους επιβράβευσης|reward points|reward points|reward points|reward points|reward points|reward points|reward points|reward points|reward points|reward points|reward points|reward points|reward points|reward points|puntos de recompensa|reward points|palkintopisteitä|points de fidélité|points de fidélité|bodova vjernosti|jutalom pontja|Punti Ricompensa|ポイントを|포인트|lojalumo taškus(-ų),|reward points|bonuspoeng|reward points|reward points|uzyskanych punktów|pontos de recompensa|puncte de fidelitate|бонусных баллов |бонусных баллов |vernostných bodov|točk zvestobe|bodova vernosti|bonuspoäng|бонусних балів|điểm thưởng|奖励点数|獎勵點數
reward-points.responsive.basket.use-points.third.text|to use here:|, които може да използвате тук:|za iskoristiti ovdje: |k využití zde:|der kan anvendes her:|die du hier benutzen kannst|die du hier benutzen kannst|die du hier benutzen kannst|για να τους εξαργυρώσετε εδω|για να τους εξαργυρώσετε εδω|to use here:|to use here:|to use here:|to use here:|to use here:|to use here:|to use here:|to use here:|to use here:|to use here:|to use here:|to use here:|to use here:|to use here:|que puedes usar aquí:|to use here:|käytettävänä:|Utilisez |Utilisez |za iskoristiti ovdje: |van amit itt felhasználhat:|da usare qui:|使用する||kuriuos galite panaudoti čia:|to use here:|å bruke her:|hier te gebruiken:|hier te gebruiken:|do wykorzystania tutaj:|para usar aqui|pe care le poţi folosi aici|чтобы использовать здесь|чтобы использовать здесь|k využitiu:|, ki jih lahko unovčite tukaj:|za iskoristiti ovdje: |för användning här|щоб використати тут|để sử dụng tại đây:|可以使用:|可以使用：
